{
  "AppSyncApiName": "awsdental",
  "DynamoDBBillingMode": "PAY_PER_REQUEST",
  "DynamoDBEnableServerSideEncryption": false,
  "AuthCognitoUserPoolId": {
    "Fn::GetAtt": [
      "authawsdentale726916b",
      "Outputs.UserPoolId"
    ]
  }
}