{
  "projectName": "awsdental",
  "version": "3.1",
  "frontend": "javascript",
  "javascript": {
    "framework": "react",
    "config": {
      "SourceDir": "",
      "DistributionDir": "build",
      "BuildCommand": "npm.cmd run-script build",
      "StartCommand": "npm.cmd run-script start"
    }
  },
  "providers": [
    "awscloudformation"
  ]
}